<?xml version="1.0" encoding="UTF-8"?>
<svg width="724px" height="890px" viewBox="0 0 724 890" version="1.1" xmlns="http://www.w3.org/2000/svg" xmlns:xlink="http://www.w3.org/1999/xlink">
    <!-- Generator: Sketch 44.1 (41455) - http://www.bohemiancoding.com/sketch -->
    <title>Shape</title>
    <desc>Created with Sketch.</desc>
    <defs></defs>
    <g id="Page-1" stroke="none" stroke-width="1" fill="none" fill-rule="evenodd" opacity="0.116225091">
        <g id="HOME-PAGE" fill-rule="nonzero" fill="#FFFFFF">
            <g id="Cbienpourvouslogo1-01" transform="translate(-51.000000, -5.000000)">
                <path d="M448.128291,894.950881 C434.542323,894.950881 420.956354,893.98127 406.399959,893.011659 C359.819496,889.133216 316.150312,877.497885 273.451554,860.044888 C244.338764,847.439946 217.166827,832.895782 190.965317,814.473175 C172.527217,800.898622 154.089117,786.354458 137.591869,770.840683 C121.094622,754.357298 104.597375,736.904301 91.0114061,718.481693 C73.5437324,695.211031 58.0169113,670.970758 45.4013692,644.791263 C30.8449744,614.733325 19.1998586,584.675386 11.4364481,552.678226 C8.52516912,542.012506 6.58431648,531.346785 5.61389016,520.681065 C4.64346385,511.954567 3.67303753,503.228069 2.70261121,494.50157 C1.73218489,487.714294 1.73218489,480.927017 0.761758576,474.139741 C-0.208667742,456.686744 -0.208667742,439.233748 0.761758576,421.780751 C2.70261121,394.631645 5.61389016,367.48254 12.4068744,341.303045 C22.1111376,303.488219 35.697106,267.612615 54.1352061,233.676232 C84.2184219,178.40841 124.976327,131.867085 174.468069,93.0826485 C211.34427,63.9943209 252.102175,42.6628806 296.741785,26.1794949 C312.268607,20.3618294 328.765854,15.5137748 345.263101,11.6353311 C357.878644,8.7264983 370.494186,6.78727646 384.080154,4.84805461 C398.636549,2.90883277 413.192944,1.93922184 426.778912,0.969610922 C442.305733,8.27393709e-13 457.832554,8.27393709e-13 473.359375,0.969610922 L481.122786,0.969610922 C482.093212,0.969610922 484.034065,0.969610922 485.004491,2.90883277 C485.974917,3.87844369 485.974917,3.87844369 486.945344,4.84805461 C507.324296,25.209884 526.732823,44.6021024 547.111775,64.9639318 C548.082202,65.9335427 548.082202,65.9335427 549.052628,66.9031536 C551.963907,70.7815973 556.816039,71.7512083 561.66817,72.7208192 L563.609023,72.7208192 C564.579449,72.7208192 566.520302,71.7512083 567.490728,71.7512083 C572.34286,69.8119864 576.224565,66.9031536 577.194991,61.0854881 C578.165418,57.2070444 579.135844,54.2982116 578.165418,50.419768 L578.165418,41.6932697 C578.165418,37.814826 579.135844,34.9059932 580.10627,31.0275495 C583.017549,22.3010512 587.869681,15.5137748 594.662665,10.6657201 C602.426076,4.84805461 610.189486,0.969610922 619.893749,0.969610922 L636.390997,0.969610922 C640.272702,0.969610922 644.154407,1.93922184 648.036113,2.90883277 C655.799523,5.81766553 662.592507,10.6657201 668.415065,17.4529966 C674.237623,25.209884 678.119328,32.9667714 678.119328,42.6628806 L678.119328,49.450157 L678.119328,185.195686 C678.119328,189.07413 679.089755,192.952574 680.060181,195.861406 C681.030607,197.800628 682.001034,199.73985 683.941886,201.679072 C684.912313,202.648683 685.882739,203.618294 685.882739,203.618294 C703.350413,221.07129 721.788513,239.493898 739.256186,256.946894 C743.137892,260.825338 746.049171,265.673393 748.96045,270.521447 C752.842155,277.308724 752.842155,285.065611 752.842155,292.822499 C752.842155,301.548997 748.96045,308.336273 745.078744,316.093161 C744.108318,318.032383 742.167465,319.971604 741.197039,320.941215 C738.28576,323.850048 735.374481,326.758881 732.463202,329.667714 C726.640644,335.485379 719.84766,338.394212 712.084249,340.333434 C711.113823,340.333434 709.172971,341.303045 708.202544,341.303045 C703.350413,341.303045 697.527855,342.272656 692.675723,341.303045 C690.73487,341.303045 689.764444,340.333434 687.823592,340.333434 C680.060181,337.424601 673.267197,333.546157 667.444639,327.728492 C602.426076,262.76456 538.377939,198.770239 473.359375,133.806307 C464.625538,125.079809 455.891702,116.353311 447.157865,107.626812 C446.187438,106.657201 446.187438,106.657201 445.217012,105.687591 C441.335307,101.809147 435.512749,99.869925 430.660617,99.869925 C423.867633,99.869925 416.104223,100.839536 409.311238,101.809147 C389.902712,103.748369 370.494186,108.596423 351.085659,113.444478 C313.239033,124.110198 279.274112,140.593584 247.250043,162.894635 C224.930238,178.40841 205.521712,195.861406 187.083612,216.223236 C157.970822,249.190007 135.651017,286.035222 120.124196,328.698103 C114.301638,344.211877 110.419932,360.695263 106.538227,376.209038 C103.626948,389.783591 101.686096,403.358144 100.715669,417.902308 C99.745243,434.385693 98.7748167,450.869079 99.745243,466.382854 C100.715669,487.714294 104.597375,508.076123 109.449506,528.437953 C115.272064,551.708615 122.065048,574.009666 132.739738,595.341106 C158.941248,648.669707 194.847022,693.271809 243.368338,727.208192 C266.65857,743.691577 289.948801,757.26613 316.150312,767.93185 C332.647559,774.719127 349.144807,779.567182 365.642054,783.445625 C376.316744,785.384847 386.021007,788.29368 396.695696,789.263291 C404.459107,790.232902 411.252091,791.202513 419.015502,792.172124 C426.778912,793.141734 435.512749,793.141734 443.276159,793.141734 C459.773407,793.141734 476.270654,792.172124 492.767902,790.232902 C522.851118,785.384847 551.963907,778.597571 580.10627,766.96224 C603.396502,757.26613 625.716307,744.661188 647.065686,730.117025 C660.651655,720.420915 673.267197,709.755195 685.882739,699.089475 C687.823592,697.150253 688.794018,696.180642 690.73487,694.24142 C696.557428,688.423755 704.320839,684.545311 712.084249,682.606089 C716.936381,680.666867 722.758939,680.666867 728.581497,681.636478 C737.315334,681.636478 746.049171,685.514922 753.812581,690.362977 C759.635139,694.24142 764.487271,699.089475 767.39855,704.907141 C770.309829,708.785584 772.250681,712.664028 773.221108,717.512083 C774.191534,719.451304 774.191534,721.390526 774.191534,723.329748 C775.16196,729.147414 775.16196,734.965079 774.191534,741.752356 C774.191534,744.661188 773.221108,747.570021 771.280255,750.478854 C768.368976,758.235741 763.516844,765.023018 757.694286,770.840683 C750.901302,777.62796 743.137892,783.445625 736.344907,790.232902 C734.404055,791.202513 733.433628,793.141734 731.492776,794.111345 C729.551923,796.050567 727.611071,797.020178 725.670218,798.9594 C688.794018,828.047728 649.006539,850.348779 605.337355,866.832165 C587.869681,873.619441 569.431581,879.437107 550.993481,883.31555 C540.318791,886.224383 528.673675,888.163605 517.02856,890.102827 C505.383444,892.042049 492.767902,893.011659 481.122786,893.98127 C470.448096,893.98127 458.802981,894.950881 448.128291,894.950881 Z" id="Shape"></path>
            </g>
        </g>
    </g>
</svg>