<?xml version="1.0" encoding="utf-8"?>
<!-- Generator: Adobe Illustrator 18.0.0, SVG Export Plug-In . SVG Version: 6.00 Build 0)  -->
<!DOCTYPE svg PUBLIC "-//W3C//DTD SVG 1.1//EN" "http://www.w3.org/Graphics/SVG/1.1/DTD/svg11.dtd">
<svg version="1.1" id="logo" xmlns="http://www.w3.org/2000/svg" xmlns:xlink="http://www.w3.org/1999/xlink" x="0px" y="0px" viewBox="0 0 625.657 102.105" enable-background="new 0 0 625.657 102.105" xml:space="preserve">
	<path fill="#444" d="M193.331,78.296c1.93-3.41,2.909-6.983,2.909-10.625c0-3.86-1.185-7.533-3.522-10.916
		c-2.397-3.395-7.339-6.748-14.681-9.955l-4.74-2.01c-4.86-2.152-8.216-3.817-10.283-5.104c-2.183-1.357-3.922-3.101-5.169-5.179
		c-1.264-2.104-1.906-4.399-1.906-6.815c0-3.556,1.347-6.767,4.003-9.539c2.673-2.795,6.766-4.211,12.166-4.211
		c2.543,0,4.929,0.303,7.089,0.899c2.334,0.646,4.134,1.718,5.351,3.189c0.986,1.195,1.587,2.445,1.794,3.729h7.117
		c-0.251-3.188-1.707-5.957-4.428-8.434c-3.005-2.736-8.428-4.123-16.117-4.123c-8.422,0-14.647,1.891-18.502,5.623
		c-3.896,3.77-5.79,8.295-5.79,13.834c0,3.084,0.625,5.91,1.859,8.4c1.24,2.508,3.167,4.834,5.729,6.918
		c2.61,2.125,6.633,4.313,11.956,6.508l4.11,1.69c5.32,2.14,9.387,4.361,12.076,6.603c2.931,2.504,4.409,5.709,4.409,9.535
		c0,4.627-1.68,8.426-4.993,11.291c-3.249,2.809-7.307,4.233-12.063,4.233c-5.284,0-9.623-0.918-12.896-2.727
		c-3.309-1.83-5.103-4.949-5.341-9.283h-7.075c0.167,3.076,1.095,5.973,2.764,8.621c1.847,2.93,4.495,4.971,8.095,6.236
		c3.718,1.307,8.445,1.971,14.051,1.971c5.855,0,10.575-0.896,14.027-2.658C188.727,84.267,191.419,81.673,193.331,78.296z"></path>
	<g>
		<path  fill="#444" d="M221.209,21.76c0.461-5.01,3.256-5.805,4.981-5.805c1.199,0,2.768,0.672,5.088,2.176l2.192,1.463
			c3.686,2.455,7.251,2.949,10.153,0.908c1.238-0.873,2.127-1.938,2.719-3.256c0.512-1.145,0.886-2.926,1.116-5.303h-3.3
			c-0.375,4.752-2.564,5.803-4.427,5.803c-0.914,0-2.592-0.291-6.601-2.809l-2.143-1.271c-1.867-1.147-3.718-1.725-5.522-1.725
			c-2.129,0-3.861,0.838-5.295,2.562c-1.291,1.554-2.027,3.988-2.195,7.254h3.234V21.76z"></path>
		<path fill="#444" d="M250.377,38.808c-4.846-4.668-10.787-7.035-17.658-7.035c-6.871,0-12.812,2.367-17.659,7.035
			c-4.83,4.651-7.278,11.707-7.278,20.965c0,9.36,2.448,16.455,7.275,21.082c4.845,4.643,10.787,6.998,17.662,6.998
			s12.817-2.355,17.661-6.998c4.828-4.627,7.276-11.722,7.276-21.082C257.656,50.515,255.208,43.46,250.377,38.808z M246.045,76.517
			c-3.32,4.379-7.804,6.598-13.326,6.598c-5.523,0-10.006-2.219-13.326-6.598c-3.224-4.248-4.858-9.884-4.858-16.744
			c0-6.808,1.635-12.414,4.858-16.664c3.32-4.379,7.804-6.599,13.326-6.599s10.004,2.22,13.325,6.599
			c3.225,4.252,4.859,9.858,4.859,16.664C250.904,66.632,249.269,72.265,246.045,76.517z"></path>
	</g>
	<g>
		<path fill="#444" d="M305.942,30.913c-3.24-1.42-7.158-2.141-11.646-2.141c-8.697,0-15.508,2.819-20.244,8.385
			c-4.677,5.494-7.048,13.102-7.048,22.615c0,9.621,2.372,17.271,7.05,22.735c4.736,5.537,11.546,8.345,20.242,8.345
			c4.486,0,8.404-0.722,11.646-2.142c3.291-1.442,5.988-3.571,8.021-6.328c2.066-2.805,3.113-5.639,3.113-8.426v-2.063h-12.35v2.063
			c0,1.584-0.73,2.959-2.235,4.203c-1.57,1.297-4.164,1.953-7.709,1.953c-4.276,0-7.765-1.529-10.665-4.676
			c-2.892-3.136-4.358-8.406-4.358-15.666c0-7.207,1.466-12.451,4.358-15.588c2.9-3.146,6.388-4.675,10.665-4.675
			c3.548,0,6.172,0.673,7.795,1.998c1.528,1.25,2.231,2.584,2.149,4.158v2.064h12.35v-2.064c0-3.182-1.059-6.125-3.148-8.754
			C311.902,34.368,309.215,32.351,305.942,30.913z"></path>
		<path  fill="#444" d="M353.7,28.772c-2.332,0-4.631,0.44-6.838,1.312c-2.191,0.867-4.289,2.162-6.234,3.851
			c-0.895,0.774-1.762,1.694-2.596,2.75v-6.382h-12.35v59.019h12.35V60.175c0-7.375,1.506-12.51,4.477-15.262
			c3.004-2.783,6.09-4.193,9.178-4.193c2.238,0,4.387,0.47,6.383,1.394l2.129,0.986V30.048l-0.961-0.369
			C357.668,29.077,355.807,28.772,353.7,28.772z"></path>
		<path  fill="#444" d="M402.682,31.687c-3.643-1.935-7.758-2.914-12.229-2.914c-8.158,0-14.912,3.035-20.076,9.022
			c-5.107,5.924-7.699,13.453-7.699,22.379c0,8.763,2.449,16.123,7.281,21.879c4.896,5.839,11.928,8.8,20.896,8.8
			c4.365,0,8.311-0.701,11.727-2.084c3.488-1.414,6.332-3.543,8.449-6.326c2.154-2.836,3.248-5.689,3.248-8.484v-2.063h-12.27v2.063
			c0,1.479-0.76,2.828-2.32,4.125c-1.621,1.349-4.322,2.031-8.027,2.031c-5.332,0-9.357-1.721-12.309-5.264
			c-2.709-3.252-4.203-7.406-4.451-12.369h39.779V57.92c0-7.194-1.072-12.918-3.189-17.012
			C409.344,36.755,406.381,33.653,402.682,31.687z M389.405,39.51c2.689,0,5.055,0.535,7.027,1.595
			c1.945,1.045,3.441,2.629,4.572,4.842c1.088,2.129,1.668,4.322,1.727,6.522h-26.869c0.955-3.868,2.625-6.95,4.982-9.18
			C383.536,40.747,386.334,39.51,389.405,39.51z"></path>
		<path  fill="#444" d="M471.76,87.38c-1.031-3.35-1.605-6.301-1.707-8.77c-0.105-2.562-0.16-5.076-0.16-7.474V49.374
			c0-6.291-0.857-10.535-2.623-12.971c-1.727-2.377-4.42-4.287-8.008-5.678c-3.49-1.351-7.416-2.033-11.664-2.033
			c-4.25,0-8.242,0.711-11.867,2.115c-3.699,1.436-6.719,3.598-8.975,6.43c-2.301,2.893-3.469,5.783-3.469,8.592v2.305h13.156v-2.305
			c0-1.84,0.877-3.416,2.686-4.822c1.896-1.475,4.637-2.223,8.146-2.223c2.93,0,5.461,0.633,7.523,1.879
			c1.848,1.117,2.744,3.07,2.744,5.971v5.05l-3.785,0.731c-11.311,2.209-19.092,4.771-23.785,7.834
			c-4.918,3.209-7.41,7.851-7.41,13.789c0,5.221,1.793,9.389,5.324,12.387c3.461,2.938,7.625,4.429,12.377,4.429
			c2.854,0,5.838-0.574,8.867-1.707c2.539-0.949,5.4-2.871,8.697-5.849c0.25,1.525,0.664,3.191,1.238,4.982l0.334,1.041h12.959
			L471.76,87.38z M457.543,61.464v3.627c0,3.115-0.643,5.869-1.912,8.187c-1.262,2.305-3.057,4.16-5.336,5.518
			s-4.623,2.047-6.971,2.047c-1.281,0-2.604-0.309-3.932-0.914c-1.268-0.577-2.186-1.35-2.812-2.364
			c-0.635-1.027-0.943-2.129-0.943-3.361c0-2.385,1.104-4.412,3.375-6.195c2.451-1.926,8.361-4.043,17.582-6.297L457.543,61.464z"></path>
	</g>
	<path fill="#444" d="M492.118,80.419c1.312,2.433,3.184,4.229,5.719,5.496c2.572,1.285,5.52,1.938,8.76,1.938
		c2.084,0,5.074-0.439,8.896-1.304v-4.631c-2.918,0.804-5.154,1.195-6.801,1.195c-2.561,0-4.801-0.525-6.656-1.562
		c-1.938-1.077-3.377-2.754-4.285-4.975c-0.861-2.104-1.279-5.652-1.279-10.842V38.122h16.361v-4.818h-16.361V20.085h-6.35v13.219
		h-9.672v4.818h9.672v30.273C490.122,73.921,490.793,77.966,492.118,80.419z"></path>
	<path fill="#444" d="M529.778,33.303h6.35v53.019h-6.35V33.303z"></path>
	<rect x="529.778" y="11.542" fill="#444" width="6.35" height="6.351"></rect>
	<polygon  fill="#444" points="593.512,33.303 574.12,79.661 555.237,33.303 548.401,33.303 569.989,86.321 577.331,86.321 
		599.53,33.303 "></polygon>
	<path fill="#444" d="M618.233,31.009c1.803-2.028,3.172-4.27,4.068-6.664c0.9-2.397,1.355-6.016,1.355-10.756V6.866H613.44
		v10.219h6.205v1.5c0,1.959-0.236,3.769-0.703,5.375c-0.469,1.603-1.16,3.15-2.061,4.604c-0.824,1.33-1.98,2.502-3.441,3.496v2.784
		C615.313,33.772,616.918,32.487,618.233,31.009z"></path>
	<path fill="#444" d="M0,0.001v102.105h102.112V0.001H0z M79.783,51.53c-1.205,2.672-2.962,4.783-5.504,6.59
		c-2.488,1.728-4.911,2.494-7.758,2.508c-3.966,0-8.231-1.354-12.985-4.52l-4.774-3.189c-4.791-2.967-7.914-4.846-11.965-5.026
		c-0.112,0-0.225,0-0.34,0c-3.756,0-7.608,2.116-9.479,5.424c-1.304,2.17-2.012,4.592-2.352,7.312h-4.401
		c0.005-0.063,0.014-0.121,0.02-0.184h-0.033c0.519-6.531,2.183-11.029,4.408-13.658c3.095-3.615,6.17-5.059,10.563-5.131
		c3.627,0.014,7.324,1.09,11.349,3.559l4.839,2.867v-0.008c6.324,3.84,10.491,6.135,15.103,6.32c3.776,0.153,7.558-2.425,9.061-5.718
		c1.049-2.098,1.629-4.405,1.913-7.021h4.461c-0.007,0.062-0.016,0.117-0.023,0.178h0.075C81.425,46.39,80.626,49.698,79.783,51.53z"></path>
</svg>