{
		"title": {
			"media": {
				"url": "",
				"caption": "",
				"credit": ""
			},
			"text": {
				"headline": "Bonjour",
				"text": "Bonjour"
			}
		},
		"events": [{
			          "media": {
			            "url": "https://startertheme.ovh/wp-content/uploads/2017/03/pexels-photo-48726-333x500.jpeg",
			            "caption": "",
			            "credit": ""
			          },
			          "start_date": {
			            "month": "5",
			            "day": "22",
			            "year": "2017"
			          },
			          "text": {
			            "headline": "lorem sd",
			            "text": "Lorem ipsum dolor sit amet, consectetur adipiscing elit. Cras quis luctus leo, lobortis malesuada metus. Duis commodo purus enim, a posuere turpis varius in. Phasellus hendrerit ligula quis odio blandit tempor eget in libero. Aenean venenatis justo et mauris pretium, in blandit eros aliquam. Pellentesque ligula eros, laoreet sed diam sed, vestibulum rutrum turpis. Fusce...<a class='view-article' href='https://startertheme.ovh/blog/lorem-sd/'>Voir l'article</a>"
			          }
			        }
			        
			            ,{
				          "media": {
				            "url": "https://startertheme.ovh/wp-content/uploads/2017/02/esmxug33c0c-eaters-collective-333x500.jpg",
				            "caption": "",
				            "credit": ""
				          },
				          "start_date": {
				            "month": "4",
				            "day": "2",
				            "year": "2017"
				          },
				          "text": {
				            "headline": "Tutu",
				            "text": "fdglkfd,jlkdtvytycdcc<a class='view-article' href='https://startertheme.ovh/blog/tutu/'>Voir l'article</a>"
				          }
				        }
			        
			            ,{
				          "media": {
				            "url": "https://startertheme.ovh/wp-content/uploads/2017/02/pexels-photo-287354-333x500.jpeg",
				            "caption": "",
				            "credit": ""
				          },
				          "start_date": {
				            "month": "4",
				            "day": "2",
				            "year": "2017"
				          },
				          "text": {
				            "headline": "Tata",
				            "text": "sgrdyhtdhftufygikggky<a class='view-article' href='https://startertheme.ovh/blog/tata/'>Voir l'article</a>"
				          }
				        }
			        
			            ,{
				          "media": {
				            "url": "https://startertheme.ovh/wp-content/uploads/2017/02/food-salad-healthy-lunch-333x500.jpg",
				            "caption": "",
				            "credit": ""
				          },
				          "start_date": {
				            "month": "3",
				            "day": "3",
				            "year": "2017"
				          },
				          "text": {
				            "headline": "Tete",
				            "text": "Lorem ipsum dolor sit amet, consectetur adipiscing elit. Cras quis luctus leo, lobortis malesuada metus. Duis commodo purus enim, a posuere turpis varius in. Phasellus hendrerit ligula quis odio blandit tempor eget in libero. Aenean venenatis justo et mauris pretium, in blandit eros aliquam. Pellentesque ligula eros, laoreet sed diam sed, vestibulum rutrum turpis. Fusce...<a class='view-article' href='https://startertheme.ovh/blog/tete/'>Voir l'article</a>"
				          }
				        }
			        
			            ,{
				          "media": {
				            "url": "https://startertheme.ovh/wp-content/uploads/2017/02/pexels-photo-287354-333x500.jpeg",
				            "caption": "",
				            "credit": ""
				          },
				          "start_date": {
				            "month": "3",
				            "day": "2",
				            "year": "2017"
				          },
				          "text": {
				            "headline": "Tyty",
				            "text": "sdgkhjkdjlvhnyhndrtiuycrt<a class='view-article' href='https://startertheme.ovh/blog/tyty/'>Voir l'article</a>"
				          }
				        }
			        
			            ,{
				          "media": {
				            "url": "https://startertheme.ovh/wp-content/uploads/2017/02/pexels-photo-169743-333x500.jpeg",
				            "caption": "",
				            "credit": ""
				          },
				          "start_date": {
				            "month": "3",
				            "day": "2",
				            "year": "2017"
				          },
				          "text": {
				            "headline": "Toto",
				            "text": "sdklgjkrldhmlrthfgu<a class='view-article' href='https://startertheme.ovh/blog/toto/'>Voir l'article</a>"
				          }
				        }
			        
			            ,{
				          "media": {
				            "url": "https://startertheme.ovh/wp-content/uploads/2017/02/pexels-photo-169743-333x500.jpeg",
				            "caption": "",
				            "credit": ""
				          },
				          "start_date": {
				            "month": "2",
				            "day": "17",
				            "year": "2017"
				          },
				          "text": {
				            "headline": "Miam miam",
				            "text": "Lorem ipsem<a class='view-article' href='https://startertheme.ovh/blog/miam-miam/'>Voir l'article</a>"
				          }
				        }
			        
			            ,{
				          "media": {
				            "url": "https://startertheme.ovh/wp-content/uploads/2017/02/pexels-photo-1-333x500.jpg",
				            "caption": "",
				            "credit": ""
				          },
				          "start_date": {
				            "month": "2",
				            "day": "16",
				            "year": "2017"
				          },
				          "text": {
				            "headline": "Bon appétit",
				            "text": "tto<a class='view-article' href='https://startertheme.ovh/blog/bon-appetit/'>Voir l'article</a>"
				          }
				        }
			        
			            ,{
				          "media": {
				            "url": "https://startertheme.ovh/wp-content/uploads/2017/02/food-salad-healthy-lunch-333x500.jpg",
				            "caption": "",
				            "credit": ""
				          },
				          "start_date": {
				            "month": "2",
				            "day": "16",
				            "year": "2017"
				          },
				          "text": {
				            "headline": "Test 2",
				            "text": "Lorem ipsam<a class='view-article' href='https://startertheme.ovh/blog/test-2/'>Voir l'article</a>"
				          }
				        }
			        
			            ,{
				          "media": {
				            "url": "https://startertheme.ovh/wp-content/uploads/2017/02/pexels-photo-52570-333x500.jpeg",
				            "caption": "",
				            "credit": ""
				          },
				          "start_date": {
				            "month": "2",
				            "day": "16",
				            "year": "2017"
				          },
				          "text": {
				            "headline": "Test",
				            "text": "Lorem ipsum<a class='view-article' href='https://startertheme.ovh/blog/test/'>Voir l'article</a>"
				          }
				        }
			        
			            ,{
				          "media": {
				            "url": "https://startertheme.ovh/wp-content/uploads/2017/02/pexels-photo-24323-1-333x500.jpg",
				            "caption": "",
				            "credit": ""
				          },
				          "start_date": {
				            "month": "2",
				            "day": "6",
				            "year": "2017"
				          },
				          "text": {
				            "headline": "Titi",
				            "text": "dsgdsfhkjghnkryrec<a class='view-article' href='https://startertheme.ovh/blog/titi/'>Voir l'article</a>"
				          }
				        }
			        
			            ,{
				          "media": {
				            "url": "https://startertheme.ovh/wp-content/uploads/2017/02/Slider-7-333x500.jpg",
				            "caption": "",
				            "credit": ""
				          },
				          "start_date": {
				            "month": "1",
				            "day": "22",
				            "year": "2017"
				          },
				          "text": {
				            "headline": "Article de feu",
				            "text": "C&rsquo;est l&rsquo;histoire de toto<a class='view-article' href='https://startertheme.ovh/blog/article-de-feu/'>Voir l'article</a>"
				          }
				        }
			        
			,{
			  "media": {
				"url": "https://upload.wikimedia.org/wikipedia/fr/thumb/c/c8/Twitter_Bird.svg/1259px-Twitter_Bird.svg.png",
				"caption": "",
				"credit": ""
			  },
			  "start_date": {
				"month": "6",
				"day": "2",
				"year": "2017"
			  },
			  "text": {
				"headline": "Tweet",
				"text": "The top 5% in terms of units makes up 40% of total profits in the TV market #QLED #Premium #TV https://t.co/CXvHXdzuWk"
			  }
			}
		
			,{
			  "media": {
				"url": "https://upload.wikimedia.org/wikipedia/fr/thumb/c/c8/Twitter_Bird.svg/1259px-Twitter_Bird.svg.png",
				"caption": "",
				"credit": ""
			  },
			  "start_date": {
				"month": "6",
				"day": "2",
				"year": "2017"
			  },
			  "text": {
				"headline": "Tweet",
				"text": "How Samsung is helping to keep the roads safe https://t.co/OPiceOlfYT"
			  }
			}
		
			,{
			  "media": {
				"url": "https://upload.wikimedia.org/wikipedia/fr/thumb/c/c8/Twitter_Bird.svg/1259px-Twitter_Bird.svg.png",
				"caption": "",
				"credit": ""
			  },
			  "start_date": {
				"month": "6",
				"day": "2",
				"year": "2017"
			  },
			  "text": {
				"headline": "Tweet",
				"text": "How to choose the right memory card #SamsungEVOPlus https://t.co/8qB23g175K"
			  }
			}
		
			,{
			  "media": {
				"url": "https://upload.wikimedia.org/wikipedia/fr/thumb/c/c8/Twitter_Bird.svg/1259px-Twitter_Bird.svg.png",
				"caption": "",
				"credit": ""
			  },
			  "start_date": {
				"month": "6",
				"day": "2",
				"year": "2017"
			  },
			  "text": {
				"headline": "Tweet",
				"text": "#TheFrame is now available in select countries #LifestyleTV https://t.co/PbpiIUAhTK"
			  }
			}
		
			,{
			  "media": {
				"url": "https://upload.wikimedia.org/wikipedia/fr/thumb/c/c8/Twitter_Bird.svg/1259px-Twitter_Bird.svg.png",
				"caption": "",
				"credit": ""
			  },
			  "start_date": {
				"month": "5",
				"day": "31",
				"year": "2017"
			  },
			  "text": {
				"headline": "Tweet",
				"text": "#GearFit2 software update available via Samsung Gear app https://t.co/bwfxHXc0Je"
			  }
			}
		
			,{
			  "media": {
				"url": "https://upload.wikimedia.org/wikipedia/fr/thumb/c/c8/Twitter_Bird.svg/1259px-Twitter_Bird.svg.png",
				"caption": "",
				"credit": ""
			  },
			  "start_date": {
				"month": "5",
				"day": "31",
				"year": "2017"
			  },
			  "text": {
				"headline": "Tweet",
				"text": "Samsung Bulgaria brings technology to help preserve historical treasures in Bulgaria https://t.co/gSPxQcrkuE"
			  }
			}
		
			,{
			  "media": {
				"url": "https://upload.wikimedia.org/wikipedia/fr/thumb/c/c8/Twitter_Bird.svg/1259px-Twitter_Bird.svg.png",
				"caption": "",
				"credit": ""
			  },
			  "start_date": {
				"month": "5",
				"day": "31",
				"year": "2017"
			  },
			  "text": {
				"headline": "Tweet",
				"text": "TV as an objet d’art https://t.co/JKpY3fygxR"
			  }
			}
		
			,{
			  "media": {
				"url": "https://upload.wikimedia.org/wikipedia/fr/thumb/c/c8/Twitter_Bird.svg/1259px-Twitter_Bird.svg.png",
				"caption": "",
				"credit": ""
			  },
			  "start_date": {
				"month": "5",
				"day": "31",
				"year": "2017"
			  },
			  "text": {
				"headline": "Tweet",
				"text": "Consumers can now choose form AND function https://t.co/rxPuqTrihO"
			  }
			}
		
			,{
			  "media": {
				"url": "https://upload.wikimedia.org/wikipedia/fr/thumb/c/c8/Twitter_Bird.svg/1259px-Twitter_Bird.svg.png",
				"caption": "",
				"credit": ""
			  },
			  "start_date": {
				"month": "5",
				"day": "29",
				"year": "2017"
			  },
			  "text": {
				"headline": "Tweet",
				"text": "LIVE action in virtual reality #Gear #VR https://t.co/jmNh08xnhw"
			  }
			}
		
			,{
			  "media": {
				"url": "https://upload.wikimedia.org/wikipedia/fr/thumb/c/c8/Twitter_Bird.svg/1259px-Twitter_Bird.svg.png",
				"caption": "",
				"credit": ""
			  },
			  "start_date": {
				"month": "5",
				"day": "29",
				"year": "2017"
			  },
			  "text": {
				"headline": "Tweet",
				"text": "Helping to respond to emergencies at the speed of LTE https://t.co/S11mtGUiZO"
			  }
			}
		
			,{
			  "media": {
				"url": "https://upload.wikimedia.org/wikipedia/fr/thumb/c/c8/Twitter_Bird.svg/1259px-Twitter_Bird.svg.png",
				"caption": "",
				"credit": ""
			  },
			  "start_date": {
				"month": "5",
				"day": "26",
				"year": "2017"
			  },
			  "text": {
				"headline": "Tweet",
				"text": "Leading the premium TV market #QLED https://t.co/7NN7D43omR"
			  }
			}
		
			,{
			  "media": {
				"url": "https://upload.wikimedia.org/wikipedia/fr/thumb/c/c8/Twitter_Bird.svg/1259px-Twitter_Bird.svg.png",
				"caption": "",
				"credit": ""
			  },
			  "start_date": {
				"month": "5",
				"day": "25",
				"year": "2017"
			  },
			  "text": {
				"headline": "Tweet",
				"text": "Tailor-made for 🇨🇳 #GalaxyS8 https://t.co/2afkbdVm50"
			  }
			}
		
			,{
			  "media": {
				"url": "https://upload.wikimedia.org/wikipedia/fr/thumb/c/c8/Twitter_Bird.svg/1259px-Twitter_Bird.svg.png",
				"caption": "",
				"credit": ""
			  },
			  "start_date": {
				"month": "5",
				"day": "25",
				"year": "2017"
			  },
			  "text": {
				"headline": "Tweet",
				"text": "Samsung Indonesia set out to provide better access to education and residential facilities to the local community https://t.co/tzbaIurz5z"
			  }
			}
		
			,{
			  "media": {
				"url": "https://upload.wikimedia.org/wikipedia/fr/thumb/c/c8/Twitter_Bird.svg/1259px-Twitter_Bird.svg.png",
				"caption": "",
				"credit": ""
			  },
			  "start_date": {
				"month": "5",
				"day": "24",
				"year": "2017"
			  },
			  "text": {
				"headline": "Tweet",
				"text": "🇲🇽 https://t.co/4hxbSj8yQ4"
			  }
			}
		
			,{
			  "media": {
				"url": "https://upload.wikimedia.org/wikipedia/fr/thumb/c/c8/Twitter_Bird.svg/1259px-Twitter_Bird.svg.png",
				"caption": "",
				"credit": ""
			  },
			  "start_date": {
				"month": "5",
				"day": "24",
				"year": "2017"
			  },
			  "text": {
				"headline": "Tweet",
				"text": "Laying the roadmap for smaller and smarter semiconductor chips https://t.co/luqdeUkqUD"
			  }
			}
		
			,{
			  "media": {
				"url": "https://upload.wikimedia.org/wikipedia/fr/thumb/c/c8/Twitter_Bird.svg/1259px-Twitter_Bird.svg.png",
				"caption": "",
				"credit": ""
			  },
			  "start_date": {
				"month": "5",
				"day": "24",
				"year": "2017"
			  },
			  "text": {
				"headline": "Tweet",
				"text": "That's one compressor every three seconds https://t.co/CI4d9rNQZZ"
			  }
			}
		
			,{
			  "media": {
				"url": "https://upload.wikimedia.org/wikipedia/fr/thumb/c/c8/Twitter_Bird.svg/1259px-Twitter_Bird.svg.png",
				"caption": "",
				"credit": ""
			  },
			  "start_date": {
				"month": "5",
				"day": "24",
				"year": "2017"
			  },
			  "text": {
				"headline": "Tweet",
				"text": "Cordially inviting university students to test their skills in the third annual Samsung Collegiate Programming Cup https://t.co/reYyrIQLB3"
			  }
			}
		
			,{
			  "media": {
				"url": "https://upload.wikimedia.org/wikipedia/fr/thumb/c/c8/Twitter_Bird.svg/1259px-Twitter_Bird.svg.png",
				"caption": "",
				"credit": ""
			  },
			  "start_date": {
				"month": "5",
				"day": "24",
				"year": "2017"
			  },
			  "text": {
				"headline": "Tweet",
				"text": "Man behind Samsung DeX talks about the values and the vision of #SamsungDeX #GalaxyS8 https://t.co/xqnPNdwM3Q"
			  }
			}
		
			,{
			  "media": {
				"url": "https://upload.wikimedia.org/wikipedia/fr/thumb/c/c8/Twitter_Bird.svg/1259px-Twitter_Bird.svg.png",
				"caption": "",
				"credit": ""
			  },
			  "start_date": {
				"month": "5",
				"day": "23",
				"year": "2017"
			  },
			  "text": {
				"headline": "Tweet",
				"text": "Turning #5G into reality https://t.co/UcKKQUbS5U"
			  }
			}
		]
	}